<?xml version="1.0" encoding="utf-8"?>
<!-- Generator: Adobe Illustrator 21.0.0, SVG Export Plug-In . SVG Version: 6.00 Build 0)  -->
<svg version="1.1" id="Layer_1" xmlns="http://www.w3.org/2000/svg" xmlns:xlink="http://www.w3.org/1999/xlink" x="0px" y="0px"
	 viewBox="0 0 74.1 15.4" style="enable-background:new 0 0 74.1 15.4;" xml:space="preserve">
<style type="text/css">
	.st0{fill:#2E2C76;}
</style>
<title>Untitled-3</title>
<g>
	<path class="st0" d="M4.6,2.9H0V0.4h12v2.5H7.4V15H4.6L4.6,2.9z"/>
	<path class="st0" d="M20.3,3.5L15.2,15h-3l6.6-14.6h3L28.3,15h-3L20.3,3.5z"/>
	<path class="st0" d="M39.2,0.4H42V15h-1.7v0l-7.7-9.9V15h-2.8V0.4H32l7.2,9.1L39.2,0.4z"/>
	<path class="st0" d="M55.3,4c-1-0.9-2.3-1.4-3.7-1.5c-3.1,0-5,2.4-5,5.4c-0.2,2.6,1.8,4.7,4.3,4.9c0.2,0,0.5,0,0.7,0
		c1.2,0,2.4-0.4,3.3-1.2V9h-3.7V6.6h6.3v6.2c-1.4,1.7-3.6,2.7-5.8,2.6c-5.5,0-7.7-3.6-7.7-7.5c0-4.1,2.6-7.9,7.7-7.9
		c2,0,4,0.8,5.4,2.2L55.3,4z"/>
	<path class="st0" d="M74.1,7.8c0,3.8-2.4,7.6-7.5,7.6s-7.5-3.7-7.5-7.5s2.5-7.7,7.5-7.7C71.6,0.1,74.1,4,74.1,7.8z M61.8,7.9
		c0.1,2.4,1.4,5,4.8,5c3.4,0,4.7-2.6,4.8-5c0-2.5-1.3-5.2-4.8-5.2S61.7,5.4,61.8,7.9L61.8,7.9z"/>
</g>
</svg>
